No,"C Name","C Email","C Phone","C Address","C province","C City",Shipping,"Shipping Cost",Product,Price,"Coupon Code",Coupon,Total,Status,Date
1,Syapri-Chan,syapri.lawyer@gmail.com,08126044852,"Jalan Beringin Pasar V No. 16 Tembung, Percut Sei Tua ","SUMATERA UTARA","KABUPATEN DELI SERDANG",jnt,20000.00,"I7 TWS HEADSET BLUETOOTH WIRELESS",299000.00,,0.00,319000,delivery-process,"08-01-2019 16:32"
2,Uji-Coba,uji.coba@gmail.com,07765632324,"Jl Yuk Ke Mall","DI YOGYAKARTA","KABUPATEN BANTUL",jne,30000.00,"I7 TWS HEADSET BLUETOOTH WIRELESS",299000.00,,0.00,329000,wait-payment,"07-01-2019 11:43"
3,Test-Aja,testaja@yahoo.com,07896874523,"Jl. Jilin","DKI JAKARTA","KOTA JAKARTA PUSAT",jne,30000.00,"I7 TWS HEADSET BLUETOOTH WIRELESS",299000.00,,0.00,329000,wait-payment,"07-01-2019 09:53"
4,Test-Ting,testing@yahoo.com,09786786432,"Jl. Jalan","DKI JAKARTA","KOTA JAKARTA SELATAN",jne,30000.00,"I7 TWS HEADSET BLUETOOTH WIRELESS",299000.00,,0.00,329000,wait-payment,"07-01-2019 07:49"
5,waw-wawa,nikoriansyah@gmail.com,081908822122,sasasawa,"DI YOGYAKARTA","KABUPATEN SLEMAN",jnt,20000.00,,800000.00,,0.00,820000,wait-payment,"04-01-2019 07:49"
6,sasa-sasas,2hkhk@gmail.com,081908822122,sawqwwedsdsdw,"DKI JAKARTA","KOTA JAKARTA SELATAN",jne,30000.00,,800000.00,,0.00,830000,wait-payment,"04-01-2019 06:13"
7,"niko riansyah-wicaksono",nikoriansyah@gmail.com,081908822122,"pamulang city blok k 24",BANTEN,"KOTA TANGERANG SELATAN",jne,30000.00,,800000.00,,0.00,830000,delivery-process,"04-01-2019 05:53"
8,sa-sas,aa@gmail.com,sasa,sasasa,"JAWA TIMUR","KABUPATEN SIDOARJO",jne,30000.00,,800000.00,,0.00,830000,delivery-process,"04-01-2019 05:00"
9,agus-prayogo,agusdwi89@gmail.com,8119401602,"poligriya residence","SULAWESI UTARA","KABUPATEN MINAHASA",jne,30000.00,asdasdasd,123213.00,newyear,50000.00,103213,completed,"03-01-2019 23:33"
10,agus-prayogo,agusdwi89@gmail.com,8119401602,"poligriya residence","SULAWESI UTARA","KABUPATEN KEPULAUAN SANGIHE",jnt,20000.00,asdasdasd,123213.00,,0.00,143213,wait-payment,"02-01-2019 18:38"
11,agus-prayogo,agusdwi89@gmail.com,8119401602,"poligriya residence","SULAWESI UTARA","KABUPATEN KEPULAUAN TALAUD",jnt,20000.00,asdasdasd,123213.00,,0.00,143213,wait-payment,"02-01-2019 18:21"
12,agus-prayogo,agusdwi89@gmail.com,8119401602,"poligriya residence","SULAWESI UTARA","KABUPATEN KEPULAUAN SANGIHE",jnt,20000.00,asdasdasd,123213.00,,0.00,143213,wait-payment,"02-01-2019 18:18"
13,agus-prayogo,agusdwi89@gmail.com,8119401602,"poligriya residence","SULAWESI UTARA","KABUPATEN BOLAANG MONGONDOW",jnt,20000.00,asdasdasd,123213.00,newyear,50000.00,93213,wait-payment,"02-01-2019 18:17"
14,agus-prayogo,agusdwi89@gmail.com,8119401602,"poligriya residence","SULAWESI UTARA","KABUPATEN KEPULAUAN SANGIHE",jnt,20000.00,asdasdasd,123213.00,,0.00,143213,wait-payment,"02-01-2019 15:21"
15,agus-prayogo,agusdwi89@gmail.com,8119401602,"poligriya residence","SULAWESI UTARA","KABUPATEN MINAHASA",jne,30000.00,asdasdasd,123213.00,newyear,50000.00,103213,wait-payment,"02-01-2019 14:29"
16,agus-prayogo,agusdwi89@gmail.com,8119401602,"poligriya residence","SULAWESI UTARA","KABUPATEN MINAHASA",jne,30000.00,asdasdasd,123213.00,newyear,50000.00,103213,wait-payment,"02-01-2019 13:03"
