No,CName,CEmail,CPhone,CAddress,Cprovince,CCity,Shipping,ShippingCost,Product,Price,CouponCode,Coupon,Total,Status,Date
1,"agus, prayogo",agusdwi89@gmail.com,8119401602,"poligriya residence","SULAWESI UTARA","KABUPATEN KEPULAUAN TALAUD",jne,30000.00,asdasdasd,123213.00,,0.00,153213,wait-payment,"03-01-2019 01:37"
2,"agus, prayogo",agusdwi89@gmail.com,8119401602,"poligriya residence","SULAWESI UTARA","KABUPATEN MINAHASA",jnt,20000.00,asdasdasd,123213.00,newyear,50000.00,93213,wait-payment,"03-01-2019 01:11"
3,"agus, prayogo",agusdwi89@gmail.com,8119401602,"poligriya residence","SULAWESI UTARA","KABUPATEN BOLAANG MONGONDOW",jne,30000.00,asdasdasd,123213.00,,0.00,153213,wait-payment,"03-01-2019 01:08"
4,"agus, prayogo",agusdwi89@gmail.com,8119401602,"poligriya residence","SULAWESI UTARA","KABUPATEN BOLAANG MONGONDOW",jne,30000.00,asdasdasd,123213.00,newyear,50000.00,103213,wait-payment,"03-01-2019 01:05"
5,"agus, prayogo",agusdwi89@gmail.com,8119401602,"poligriya residence","SULAWESI UTARA","KABUPATEN KEPULAUAN SANGIHE",jnt,20000.00,asdasdasd,123213.00,,0.00,143213,wait-payment,"02-01-2019 15:21"
6,"agus, prayogo",agusdwi89@gmail.com,8119401602,"poligriya residence","SULAWESI UTARA","KABUPATEN MINAHASA",jne,30000.00,asdasdasd,123213.00,newyear,50000.00,103213,wait-payment,"02-01-2019 14:29"
