"type status (follow the rule) : "
"Code => COD --- others payment method"
"1 => Menunggu Konfirmasi --- Menunggu Pembayaran"
"2 => Konfirmasi Pesanan --- Pembayaran Sukses"
"3 => Proses Pengiriman --- Proses Pengiriman"
"4 => Pembayaran Diterima & Pengiriman Selesai --- Pesanan Diterima"

No,Subdomain,ID,"Order Code",Email,Date,Status
1,nikoganteng,248,#SB100248,agusdwi89@gmail.com,"20-02-2019 23:20",4
2,nikoganteng,247,#SB100247,nikoriansyah@gmail.com,"20-02-2019 22:48",4
3,nikoganteng,246,#SB100246,nikoriansyah@gmail.com,"20-02-2019 22:41",4
4,nikoganteng,245,#SB100245,dsdsds@gmail.com,"20-02-2019 22:36",4
