No,Sub-Domain,Name,Email,Phone,Province,City
1,bag,"Amri Gustian",eralsaputra12@gmail.com,085211498011,RIAU,"KABUPATEN INDRAGIRI HULU"
2,bag,"Alfons Laia",alfonslaia900@gmail.com,082273611493,"SUMATERA UTARA","KABUPATEN NIAS"
3,bag,Rosdiana,dian.azkaghaniabqari@yahoo.co.id,085224436464,"JAWA BARAT","KABUPATEN TASIKMALAYA"
4,bag,Yonga,Yongadunhill@gmail.com,085216796363,"DKI JAKARTA","KOTA JAKARTA UTARA"
5,bag,mahyanuddin,spulim43@gmail.com,081360362251,ACEH,"KOTA LANGSA"
6,bag,Harman,pnpm.barat@gmail.com,085398087772,"SULAWESI SELATAN","KABUPATEN BONE"
7,bag,"Deden Sutrisna ",dedenbrennan@gmail.com,081284138811,"DKI JAKARTA","KOTA JAKARTA PUSAT"
8,bag,"Jl.Yos Sudarso No.5",harvinsumampouw82@gmail.com,+6282112088895,PAPUA,"KABUPATEN MIMIKA"
