type status (follow the rule) : wait-payment / payment-success / delivery-process / completed,,,,,,
No,Subdomain,ID,Order Code,Email,Date,Status
1,bag,241,#SB100241,agusdwi89@gmail.com,18/02/19 07.22,completed
2,bag,240,#SB100240,Fluflud@gmail.com,17/02/19 20.55,completed
3,bag,239,#SB100239,agusdwi89@gmail.com,17/02/19 19.35,completed
4,bag,238,#SB100238,agusdwi89@gmail.com,17/02/19 19.15,completed
5,bag,237,#SB100237,canoopix@gmail.com,17/02/19 19.14,completed
6,www,235,#SB100235,agusdwi89@gmail.com,13/02/19 09.22,completed
7,www,234,#SB100234,Djdjdjdjdj@jdjdjd.com,13/02/19 08.15,completed
8,www,233,#SB100233,Agus@gmail.com,12/02/19 23.46,completed
9,www,232,#SB100232,agusdwi89@gmail.com,12/02/19 23.37,completed
10,www,231,#SB100231,agusdwi89@gmail.com,12/02/19 23.28,completed
11,www,230,#SB100230,agusdwi89@gmail.com,12/02/19 23.27,completed
12,www,229,#SB100229,dzahindigital@gmail.com,12/02/19 23.01,completed
13,www,228,#SB100228,agusdwi89@gmail.com,12/02/19 22.59,completed
14,www,227,#SB100227,dzahindigital@gmail.com,12/02/19 22.55,completed
15,www,226,#SB100226,agusdwi89@gmail.com,12/02/19 22.36,completed
16,www,225,#SB100225,agusdwi89@gmail.com,12/02/19 22.26,completed
17,www,224,#SB100224,agusdwi89@gmail.com,12/02/19 22.22,completed
18,www,223,#SB100223,agusdwi89@gmail.com,12/02/19 22.16,completed
19,www,222,#SB100222,agusdwi89@gmail.com,12/02/19 21.54,completed
20,www,221,#SB100221,agusdwi89@gmail.com,12/02/19 21.39,completed
21,www,220,#SB100220,Kimkimgracella@gmail.com,11/02/19 11.10,completed
22,www,219,#SB100219,Setiamanbate03@gmail.com,11/02/19 10.51,completed
23,www,218,#SB100218,Boneng@gmail.com,11/02/19 08.11,completed
24,www,217,#SB100217,Saicandra92@gmail.com,11/02/19 00.51,completed
25,www,216,#SB100216,Zainurrahman392@gmail.com,10/02/19 22.45,completed
26,www,215,#SB100215,Tardhichung@gmail.com,10/02/19 18.20,completed
27,www,214,#SB100214,pagaryasa@gmail.com,10/02/19 17.55,completed
28,www,213,#SB100213,inggridyuliani17@gmail.com,10/02/19 04.45,completed
29,www,212,#SB100212,putraindrahugen@gmail.com,10/02/19 04.42,completed
30,www,211,#SB100211,brantakan171@gmail.com,10/02/19 02.03,completed
31,www,210,#SB100210,aswandana163@gmail.com,10/02/19 01.08,completed
32,www,209,#SB100209,Sonnymc19@gmail.com,09/02/19 23.42,completed
33,www,208,#SB100208,Nisrinafadilaa@gmail.com,09/02/19 21.41,completed
34,www,207,#SB100207,Christian.wijaya@lautan-luas.com,09/02/19 20.10,completed
35,www,206,#SB100206,Jack.dnata@gmail.com,09/02/19 19.55,completed
36,www,205,#SB100205,agusfarangga8699@gmail.com,09/02/19 19.36,completed
37,www,204,#SB100204,Yokiiabdulaziz58@gmail.com,09/02/19 18.10,completed
38,www,203,#SB100203,Sirajuddins910@gmail.com,09/02/19 15.53,completed
39,www,202,#SB100202,lielawardhy@gmail.com,09/02/19 14.20,completed
40,www,201,#SB100201,Agustinushendiandre@gmail.com,09/02/19 11.26,completed
41,www,200,#SB100200,tanzilandrians11@gmail.com,09/02/19 10.39,completed
42,www,199,#SB100199,Firdariana72@gmail.com,09/02/19 05.43,completed
43,www,198,#SB100198,fauzanhakim.fh77@gmail.com,09/02/19 00.16,completed
44,www,197,#SB100197,mustanzierarya@gmail.com,08/02/19 15.06,completed
45,www,196,#SB100196,luqmanelhakiem1924@gmail.com,08/02/19 11.08,completed
46,www,195,#SB100195,Falahy7696@gmail.com,08/02/19 11.03,completed
47,www,194,#SB100194,achmad.syaefudin27@gmail.com,08/02/19 10.20,completed
48,www,193,#SB100193,dadipahlevy@yahoo.com,08/02/19 08.28,completed
49,www,192,#SB100192,Ezzajhie@gmail.com,08/02/19 06.57,completed
50,www,191,#SB100191,Debimelon338@gmail.com,08/02/19 03.39,completed
51,www,190,#SB100190,Suryabaskara88@gmail.com,08/02/19 01.59,completed
52,www,189,#SB100189,Ahmadjaka1113@gmail.com,08/02/19 01.39,completed
53,www,188,#SB100188,WayanGalang65@Gmail.com,07/02/19 18.17,completed
54,www,187,#SB100187,rohmatkholis.01@gmaal.com,07/02/19 17.38,completed
55,www,186,#SB100186,ray.nizar26@gmail.com,07/02/19 16.35,completed
56,www,185,#SB100185,Feryagam21@gmail.com,07/02/19 15.09,completed
57,www,184,#SB100184,msoleh272@gmail.com,07/02/19 14.04,completed
58,www,183,#SB100183,Sorayamanurung2@gmail.com,07/02/19 08.42,completed
59,www,182,#SB100182,guna_kusnandar@yahoo.co.id,07/02/19 07.22,completed
60,www,181,#SB100181,mirwan88@ymail.com,07/02/19 02.09,completed
61,www,180,#SB100180,denilsonsapari09@gmail.com,06/02/19 22.11,completed
62,www,179,#SB100179,rzulfifa@gmail.com,06/02/19 19.14,completed
63,www,178,#SB100178,sdsd@gmail.com,06/02/19 17.15,completed
64,www,177,#SB100177,muhamadrenald@gmail.com,06/02/19 16.42,completed
65,www,176,#SB100176,Dawoherliana@yahoo.com,06/02/19 11.20,completed
66,www,175,#SB100175,amrizal.rengganis15@gmail.com,06/02/19 01.53,completed
67,www,174,#SB100174,andisubair88@gmail.com,05/02/19 20.49,completed
68,www,173,#SB100173,dhex.mountain@gmail.com,05/02/19 19.07,completed
69,www,172,#SB100172,Herrygama15@gmail.com,05/02/19 18.35,completed
70,www,171,#SB100171,Chandravhica1626@gmail.com,05/02/19 18.25,completed
71,www,170,#SB100170,ariffuddin79139@gmail.com,05/02/19 16.32,completed
72,www,169,#SB100169,achmadrijalkholilurr@gmail.com,05/02/19 14.45,completed
73,www,168,#SB100168,defretes.andre@gmail.com,05/02/19 14.44,completed
74,www,167,#SB100167,delahutabarat124@yahoo.com,05/02/19 09.46,completed
75,www,166,#SB100166,Ardi_yantosi@yahoo.co.id,05/02/19 08.20,completed
76,www,165,#SB100165,sumarditanjung@yahoo.co.id,05/02/19 08.07,completed
77,www,164,#SB100164,rizkyaulia1919@gmail.com,04/02/19 18.48,completed
78,www,163,#SB100163,bigsolon0808@gmail.com,04/02/19 17.46,completed
79,www,162,#SB100162,nguraharya582@gmail.com,04/02/19 14.42,completed
80,www,161,#SB100161,chandrapanto86@gmail.com,04/02/19 10.20,completed
81,www,160,#SB100160,Bayhoki@gmail.com,04/02/19 02.23,completed
82,www,159,#SB100159,cwijaya233@gmail.com,04/02/19 00.14,completed
83,www,158,#SB100158,abangmirza71@gmail.com,03/02/19 21.46,completed
84,www,157,#SB100157,sudirmanrsn@gmail.com,03/02/19 16.48,completed
85,www,156,#SB100156,sudirmanrsn@gmail.com,03/02/19 13.39,completed
86,www,155,#SB100155,herwinhou@gmail.com,03/02/19 13.17,completed
87,www,154,#SB100154,djulkifli.djulkifli01@gmail.com,03/02/19 12.54,completed
88,www,153,#SB100153,Haryonosapii1304@gmail.com,03/02/19 07.29,completed
89,www,152,#SB100152,Nugrahaspddendy@gmail.com,02/02/19 21.19,completed
90,www,151,#SB100151,udinheang.hino@gmail.com,02/02/19 19.01,completed
91,www,150,#SB100150,ivo.viga.iv@gmail.com,02/02/19 18.37,completed
92,www,149,#SB100149,puturoly@gmail.com,02/02/19 13.19,completed
93,www,148,#SB100148,ahmadzoulkifli023@gmail.com,02/02/19 02.12,completed
94,www,147,#SB100147,akmalkurniawan095@gmail.com,02/02/19 01.00,completed
95,www,146,#SB100146,Hasbitkj7@gmail.com,01/02/19 21.58,completed
96,www,145,#SB100145,christian.sampaleng060995@gmail.com,01/02/19 21.04,completed
97,www,144,#SB100144,Normannikodemus77@gmail.com,01/02/19 19.14,completed
98,www,143,#SB100143,Daniumar415@gmail.com,01/02/19 17.55,completed
99,www,142,#SB100142,Adityaputraa.a@gmail.com,01/02/19 13.36,completed
100,www,141,#SB100141,Miamardison3@gmail.com,01/02/19 11.30,completed
101,www,140,#SB100140,muh.subri96@gmail.com,01/02/19 02.36,completed