type status (follow the rule) : ,,,,,,
Code => COD --- others payment method,,,,,,
1 => Menunggu Konfirmasi --- Menunggu Pembayaran,,,,,,
2 => Konfirmasi Pesanan --- Pembayaran Sukses,,,,,,
3 => Proses Pengiriman --- Proses Pengiriman,,,,,,
4 => Pembayaran Diterima & Pengiriman Selesai --- Pesanan Diterima,,,,,,
     ,,,,,,
No,Subdomain,ID,Order Code,Email,Date,Status
1,nikoganteng,248,#SB100248,agusdwi89@gmail.com,20/02/19 23.20,1
2,nikoganteng,247,#SB100247,nikoriansyah@gmail.com,20/02/19 22.48,1
3,nikoganteng,246,#SB100246,nikoriansyah@gmail.com,20/02/19 22.41,1
4,nikoganteng,245,#SB100245,dsdsds@gmail.com,20/02/19 22.36,1