No,Subdomain,ID,"Order Code",Email,Status,Date
1,bag,241,#SB100241,agusdwi89@gmail.com,wait-payment,"18-02-2019 07:22"
2,bag,240,#SB100240,Fluflud@gmail.com,wait-payment,"17-02-2019 20:55"
3,bag,239,#SB100239,agusdwi89@gmail.com,wait-payment,"17-02-2019 19:35"
4,bag,238,#SB100238,agusdwi89@gmail.com,wait-payment,"17-02-2019 19:15"
5,bag,237,#SB100237,canoopix@gmail.com,wait-payment,"17-02-2019 19:14"
6,www,235,#SB100235,agusdwi89@gmail.com,wait-payment,"13-02-2019 09:22"
7,www,234,#SB100234,Djdjdjdjdj@jdjdjd.com,wait-payment,"13-02-2019 08:15"
8,www,233,#SB100233,Agus@gmail.com,wait-payment,"12-02-2019 23:46"
9,www,232,#SB100232,agusdwi89@gmail.com,wait-payment,"12-02-2019 23:37"
10,www,231,#SB100231,agusdwi89@gmail.com,wait-payment,"12-02-2019 23:28"
11,www,230,#SB100230,agusdwi89@gmail.com,wait-payment,"12-02-2019 23:27"
12,www,229,#SB100229,dzahindigital@gmail.com,payment-success,"12-02-2019 23:01"
13,www,228,#SB100228,agusdwi89@gmail.com,payment-success,"12-02-2019 22:59"
14,www,227,#SB100227,dzahindigital@gmail.com,wait-payment,"12-02-2019 22:55"
15,www,226,#SB100226,agusdwi89@gmail.com,wait-payment,"12-02-2019 22:36"
16,www,225,#SB100225,agusdwi89@gmail.com,payment-success,"12-02-2019 22:26"
17,www,224,#SB100224,agusdwi89@gmail.com,payment-success,"12-02-2019 22:22"
18,www,223,#SB100223,agusdwi89@gmail.com,payment-success,"12-02-2019 22:16"
19,www,222,#SB100222,agusdwi89@gmail.com,wait-payment,"12-02-2019 21:54"
20,www,221,#SB100221,agusdwi89@gmail.com,wait-payment,"12-02-2019 21:39"
21,www,220,#SB100220,Kimkimgracella@gmail.com,wait-payment,"11-02-2019 11:10"
22,www,219,#SB100219,Setiamanbate03@gmail.com,wait-payment,"11-02-2019 10:51"
23,www,218,#SB100218,Boneng@gmail.com,wait-payment,"11-02-2019 08:11"
24,www,217,#SB100217,Saicandra92@gmail.com,wait-payment,"11-02-2019 00:51"
25,www,216,#SB100216,Zainurrahman392@gmail.com,wait-payment,"10-02-2019 22:45"
26,www,215,#SB100215,Tardhichung@gmail.com,wait-payment,"10-02-2019 18:20"
27,www,214,#SB100214,pagaryasa@gmail.com,wait-payment,"10-02-2019 17:55"
28,www,213,#SB100213,inggridyuliani17@gmail.com,wait-payment,"10-02-2019 04:45"
29,www,212,#SB100212,putraindrahugen@gmail.com,wait-payment,"10-02-2019 04:42"
30,www,211,#SB100211,brantakan171@gmail.com,wait-payment,"10-02-2019 02:03"
31,www,210,#SB100210,aswandana163@gmail.com,wait-payment,"10-02-2019 01:08"
32,www,209,#SB100209,Sonnymc19@gmail.com,wait-payment,"09-02-2019 23:42"
33,www,208,#SB100208,Nisrinafadilaa@gmail.com,wait-payment,"09-02-2019 21:41"
34,www,207,#SB100207,Christian.wijaya@lautan-luas.com,wait-payment,"09-02-2019 20:10"
35,www,206,#SB100206,Jack.dnata@gmail.com,payment-success,"09-02-2019 19:55"
36,www,205,#SB100205,agusfarangga8699@gmail.com,wait-payment,"09-02-2019 19:36"
37,www,204,#SB100204,Yokiiabdulaziz58@gmail.com,wait-payment,"09-02-2019 18:10"
38,www,203,#SB100203,Sirajuddins910@gmail.com,wait-payment,"09-02-2019 15:53"
39,www,202,#SB100202,lielawardhy@gmail.com,wait-payment,"09-02-2019 14:20"
40,www,201,#SB100201,Agustinushendiandre@gmail.com,wait-payment,"09-02-2019 11:26"
41,www,200,#SB100200,tanzilandrians11@gmail.com,wait-payment,"09-02-2019 10:39"
42,www,199,#SB100199,Firdariana72@gmail.com,wait-payment,"09-02-2019 05:43"
43,www,198,#SB100198,fauzanhakim.fh77@gmail.com,wait-payment,"09-02-2019 00:16"
44,www,197,#SB100197,mustanzierarya@gmail.com,wait-payment,"08-02-2019 15:06"
45,www,196,#SB100196,luqmanelhakiem1924@gmail.com,wait-payment,"08-02-2019 11:08"
46,www,195,#SB100195,Falahy7696@gmail.com,wait-payment,"08-02-2019 11:03"
47,www,194,#SB100194,achmad.syaefudin27@gmail.com,wait-payment,"08-02-2019 10:20"
48,www,193,#SB100193,dadipahlevy@yahoo.com,payment-success,"08-02-2019 08:28"
49,www,192,#SB100192,Ezzajhie@gmail.com,wait-payment,"08-02-2019 06:57"
50,www,191,#SB100191,Debimelon338@gmail.com,wait-payment,"08-02-2019 03:39"
51,www,190,#SB100190,Suryabaskara88@gmail.com,wait-payment,"08-02-2019 01:59"
52,www,189,#SB100189,Ahmadjaka1113@gmail.com,wait-payment,"08-02-2019 01:39"
53,www,188,#SB100188,WayanGalang65@Gmail.com,wait-payment,"07-02-2019 18:17"
54,www,187,#SB100187,rohmatkholis.01@gmaal.com,wait-payment,"07-02-2019 17:38"
55,www,186,#SB100186,ray.nizar26@gmail.com,wait-payment,"07-02-2019 16:35"
56,www,185,#SB100185,Feryagam21@gmail.com,wait-payment,"07-02-2019 15:09"
57,www,184,#SB100184,msoleh272@gmail.com,wait-payment,"07-02-2019 14:04"
58,www,183,#SB100183,Sorayamanurung2@gmail.com,wait-payment,"07-02-2019 08:42"
59,www,182,#SB100182,guna_kusnandar@yahoo.co.id,payment-success,"07-02-2019 07:22"
60,www,181,#SB100181,mirwan88@ymail.com,wait-payment,"07-02-2019 02:09"
61,www,180,#SB100180,denilsonsapari09@gmail.com,wait-payment,"06-02-2019 22:11"
62,www,179,#SB100179,rzulfifa@gmail.com,wait-payment,"06-02-2019 19:14"
63,www,178,#SB100178,sdsd@gmail.com,wait-payment,"06-02-2019 17:15"
64,www,177,#SB100177,muhamadrenald@gmail.com,wait-payment,"06-02-2019 16:42"
65,www,176,#SB100176,Dawoherliana@yahoo.com,wait-payment,"06-02-2019 11:20"
66,www,175,#SB100175,amrizal.rengganis15@gmail.com,wait-payment,"06-02-2019 01:53"
67,www,174,#SB100174,andisubair88@gmail.com,wait-payment,"05-02-2019 20:49"
68,www,173,#SB100173,dhex.mountain@gmail.com,wait-payment,"05-02-2019 19:07"
69,www,172,#SB100172,Herrygama15@gmail.com,wait-payment,"05-02-2019 18:35"
70,www,171,#SB100171,Chandravhica1626@gmail.com,wait-payment,"05-02-2019 18:25"
71,www,170,#SB100170,ariffuddin79139@gmail.com,wait-payment,"05-02-2019 16:32"
72,www,169,#SB100169,achmadrijalkholilurr@gmail.com,wait-payment,"05-02-2019 14:45"
73,www,168,#SB100168,defretes.andre@gmail.com,wait-payment,"05-02-2019 14:44"
74,www,167,#SB100167,delahutabarat124@yahoo.com,wait-payment,"05-02-2019 09:46"
75,www,166,#SB100166,Ardi_yantosi@yahoo.co.id,wait-payment,"05-02-2019 08:20"
76,www,165,#SB100165,sumarditanjung@yahoo.co.id,wait-payment,"05-02-2019 08:07"
77,www,164,#SB100164,rizkyaulia1919@gmail.com,wait-payment,"04-02-2019 18:48"
78,www,163,#SB100163,bigsolon0808@gmail.com,wait-payment,"04-02-2019 17:46"
79,www,162,#SB100162,nguraharya582@gmail.com,wait-payment,"04-02-2019 14:42"
80,www,161,#SB100161,chandrapanto86@gmail.com,wait-payment,"04-02-2019 10:20"
81,www,160,#SB100160,Bayhoki@gmail.com,wait-payment,"04-02-2019 02:23"
82,www,159,#SB100159,cwijaya233@gmail.com,wait-payment,"04-02-2019 00:14"
83,www,158,#SB100158,abangmirza71@gmail.com,wait-payment,"03-02-2019 21:46"
84,www,157,#SB100157,sudirmanrsn@gmail.com,wait-payment,"03-02-2019 16:48"
85,www,156,#SB100156,sudirmanrsn@gmail.com,wait-payment,"03-02-2019 13:39"
86,www,155,#SB100155,herwinhou@gmail.com,wait-payment,"03-02-2019 13:17"
87,www,154,#SB100154,djulkifli.djulkifli01@gmail.com,wait-payment,"03-02-2019 12:54"
88,www,153,#SB100153,Haryonosapii1304@gmail.com,wait-payment,"03-02-2019 07:29"
89,www,152,#SB100152,Nugrahaspddendy@gmail.com,wait-payment,"02-02-2019 21:19"
90,www,151,#SB100151,udinheang.hino@gmail.com,wait-payment,"02-02-2019 19:01"
91,www,150,#SB100150,ivo.viga.iv@gmail.com,wait-payment,"02-02-2019 18:37"
92,www,149,#SB100149,puturoly@gmail.com,wait-payment,"02-02-2019 13:19"
93,www,148,#SB100148,ahmadzoulkifli023@gmail.com,wait-payment,"02-02-2019 02:12"
94,www,147,#SB100147,akmalkurniawan095@gmail.com,wait-payment,"02-02-2019 01:00"
95,www,146,#SB100146,Hasbitkj7@gmail.com,wait-payment,"01-02-2019 21:58"
96,www,145,#SB100145,christian.sampaleng060995@gmail.com,wait-payment,"01-02-2019 21:04"
97,www,144,#SB100144,Normannikodemus77@gmail.com,wait-payment,"01-02-2019 19:14"
98,www,143,#SB100143,Daniumar415@gmail.com,wait-payment,"01-02-2019 17:55"
99,www,142,#SB100142,Adityaputraa.a@gmail.com,wait-payment,"01-02-2019 13:36"
100,www,141,#SB100141,Miamardison3@gmail.com,wait-payment,"01-02-2019 11:30"
101,www,140,#SB100140,muh.subri96@gmail.com,wait-payment,"01-02-2019 02:36"
